{
  "from": 1,
  "to": 10,
  "total": 514,
  "per_page": 10,
  "current_page": 1,
  "last_page": 52,
  "first_page_url": "page=1&limit=10",
  "last_page_url": "page=1&limit=10",
  "next_page_url": "page=1&limit=10",
  "prev_page_url": "page=1&limit=10",
  "path": "http://192.168.3.221:8001/rheinmedika/medical-check/accounts",
  "data": [
    {
      "id": 1,
      "code": "11.01",
      "name": "KAB. ACEH SELATAN",
      "createdAt": "2023-08-23T12:34:56",
      "updatedAt": "2023-08-23T12:34:56"
    },
    {
      "id": 2,
      "code": "11.02",
      "name": "KAB. ACEH TENGGARA",
      "createdAt": "2023-08-23T12:34:56",
      "updatedAt": "2023-08-23T12:34:56"
    },
    {
      "id": 3,
      "code": "11.03",
      "name": "KAB. ACEH TIMUR",
      "createdAt": "2023-08-23T12:34:56",
      "updatedAt": "2023-08-23T12:34:56"
    },
    {
      "id": 4,
      "code": "11.04",
      "name": "KAB. ACEH TENGAH",
      "createdAt": "2023-08-23T12:34:56",
      "updatedAt": "2023-08-23T12:34:56"
    },
    {
      "id": 5,
      "code": "11.05",
      "name": "KAB. ACEH BARAT",
      "createdAt": "2023-08-23T12:34:56",
      "updatedAt": "2023-08-23T12:34:56"
    },
    {
      "id": 6,
      "code": "11.06",
      "name": "KAB. ACEH BESAR",
      "createdAt": "2023-08-23T12:34:56",
      "updatedAt": "2023-08-23T12:34:56"
    },
    {
      "id": 7,
      "code": "11.07",
      "name": "KAB. PIDIE",
      "createdAt": "2023-08-23T12:34:56",
      "updatedAt": "2023-08-23T12:34:56"
    },
    {
      "id": 8,
      "code": "11.08",
      "name": "KAB. ACEH UTARA",
      "createdAt": "2023-08-23T12:34:56",
      "updatedAt": "2023-08-23T12:34:56"
    },
    {
      "id": 9,
      "code": "11.09",
      "name": "KAB. SIMEULUE",
      "createdAt": "2023-08-23T12:34:56",
      "updatedAt": "2023-08-23T12:34:56"
    },
    {
      "id": 10,
      "code": "11.10",
      "name": "KAB. ACEH SINGKIL",
      "createdAt": "2023-08-23T12:34:56",
      "updatedAt": "2023-08-23T12:34:56"
    }
  ]
}
