{
  "from": 1,
  "to": 10,
  "total": 1000,
  "per_page": 10,
  "current_page": 1,
  "last_page": 100,
  "first_page_url": "page=1&limit=10",
  "last_page_url": "page=1&limit=10",
  "next_page_url": "page=1&limit=10",
  "prev_page_url": "page=1&limit=10",
  "path": "http://192.168.3.221:8001/rheinmedika/medical-check/accounts",
  "data": [
    {
      "id": 1,
      "img": "/img/items/1660286499_62a18fe1f15ee840f565f5b1.jpeg",
      "name": "Provit-C 605 Mg 6 Kaplet",
      "sku": "SD201551011",
      "price": 21702,
      "dose": "2 x sehari 1 kaplet salut selaput",
      "packaging": "Box, 5 strip @ 6 kaplet salut selaput",
      "manufacturing": "Mahakam Beta Farma",
      "createdAt": "2023-08-23T12:34:56",
      "updatedAt": "2023-08-23T12:34:56"
    },
    {
      "id": 2,
      "img": "/img/items/1660367614_62a19088f15ee840f565fbe8.jpeg",
      "name": "Nat C 1000 30 Kapsul",
      "sku": "SI104501611",
      "price": 171554,
      "dose": "1 tablet per hari.",
      "packaging": "Botol plastik @ 30 tablet",
      "manufacturing": "Kalbe Farma",
      "createdAt": "2023-08-23T12:34:56",
      "updatedAt": "2023-08-23T12:34:56"
    },
    {
      "id": 3,
      "img": "/img/items/1660455510_5fb37e0b41ab59059e8688ea.jpeg",
      "name": "Xonce Jeruk 2 Tablet",
      "sku": "SD131543891",
      "price": 10416,
      "dose": "Xonce Rasa Jeruk 2 Tablet dapat dikonsumsi 1–2 tablet isap per hari.",
      "packaging": "Dus, 50 strip @ 2 tablet isap",
      "manufacturing": "Kalbe Farma",
      "createdAt": "2023-08-23T12:34:56",
      "updatedAt": "2023-08-23T12:34:56"
    },
    {
      "id": 4,
      "img": "/img/items/1659935216_61dff62de139ec05b9c8cadd.png",
      "name": "Blackmores Bio C 1000 Mg 30 Tablet",
      "sku": "SI164507151",
      "price": 155705,
      "dose": "1 tablet, tiap hari setelah makan.",
      "packaging": "Botol kaca @ 30 tablet ",
      "manufacturing": "PT Kalbe Blackmores Nutrition",
      "createdAt": "2023-08-23T12:34:56",
      "updatedAt": "2023-08-23T12:34:56"
    },
    {
      "id": 5,
      "img": "/img/items/1643872511_thumbnail-vicee_500_rasa_anggur_2_tablet_hisap.jpeg",
      "name": "Vicee 500 Anggur 2 Tablet",
      "sku": "SD161549181",
      "price": 3615,
      "dose": "Dosis 1–2 tablet per hari.",
      "packaging": "Dus, 50 strip @ 2 tablet ",
      "manufacturing": "PT Darya Varia Laboratoria TBK",
      "createdAt": "2023-08-23T12:34:56",
      "updatedAt": "2023-08-23T12:34:56"
    },
    {
      "id": 6,
      "img": "/img/items/1723113355_damuvit_c-1000_30_kapsul.png",
      "name": "Damuvit C-1000 30 Kapsul",
      "sku": "SD201552431",
      "price": 165000,
      "dose": "Sehari 1 kali 1 tablet",
      "packaging": "Dus, Botol @ 30 Tablet",
      "manufacturing": "PYRIDAM FARMA",
      "createdAt": "2023-08-23T12:34:56",
      "updatedAt": "2023-08-23T12:34:56"
    },
    {
      "id": 7,
      "img": "/img/items/1660795519_62a19188f15ee840f5660476.png",
      "name": "Lavit C 10 Tablet",
      "sku": "SD201550271",
      "price": 34656,
      "dose": "Sehari 1 kali 1 tablet",
      "packaging": "Strip @ 6 Tablet",
      "manufacturing": "Lapi Laboratories",
      "createdAt": "2023-08-23T12:34:56",
      "updatedAt": "2023-08-23T12:34:56"
    },
    {
      "id": 8,
      "img": "/img/items/1660796486_62a1917af15ee840f56603ff.jpeg",
      "name": "Max-C 500 mg 10 Tablet",
      "sku": "SD031508651",
      "price": 46435,
      "dose": "Dewasa dan anak-anak (8 tahun ke atas) : 1 tablet per hari",
      "packaging": "Strip @ 10 Tablet",
      "manufacturing": "Totalcare Nutraceutical",
      "createdAt": "2023-08-23T12:34:56",
      "updatedAt": "2023-08-23T12:34:56"
    },
    {
      "id": 9,
      "img": "/img/items/1691045645_nature_plus_vitamin_c_500_mg_90_tablet.jpeg",
      "name": "Nature Plus Vitamin C 500 Mg 90 Tablet",
      "sku": "SI044511341",
      "price": 319289,
      "dose": "1 tablet 1 kali sehari.",
      "packaging": "Botol @ 90 tablet",
      "manufacturing": "Radiant Sentral Nutrindo",
      "createdAt": "2023-08-23T12:34:56",
      "updatedAt": "2023-08-23T12:34:56"
    },
    {
      "id": 10,
      "img": "/img/items/1719910843_inavitamax_c_vita_kaplet.jpeg",
      "name": "Inavitamax C Vita 30 Kaplet",
      "sku": "SD202584071",
      "price": 198275,
      "dose": "1x sehari 1 kaplet, setelah makan.",
      "packaging": "-",
      "manufacturing": "PT MIDIX GRAHA FARMA",
      "createdAt": "2023-08-23T12:34:56",
      "updatedAt": "2023-08-23T12:34:56"
    }
  ]
}
