{
  "from": 1,
  "to": 10,
  "total": 79,
  "per_page": 10,
  "current_page": 1,
  "last_page": 80,
  "first_page_url": "page=1&limit=10",
  "last_page_url": "page=1&limit=10",
  "next_page_url": "page=1&limit=10",
  "prev_page_url": "page=1&limit=10",
  "path": "http://192.168.3.221:8001/rheinmedika/medical-check/accounts",
  "data": [
    {
      "id": 1,
      "name": "Jawa",
      "status": true,
      "createdAt": "2023-08-23T12:34:56",
      "updatedAt": "2023-08-23T12:34:56"
    },
    {
      "id": 2,
      "name": "Sunda",
      "status": true,
      "createdAt": "2023-08-23T12:34:56",
      "updatedAt": "2023-08-23T12:34:56"
    },
    {
      "id": 3,
      "name": "Batak",
      "status": true,
      "createdAt": "2023-08-23T12:34:56",
      "updatedAt": "2023-08-23T12:34:56"
    },
    {
      "id": 4,
      "name": "Melayu",
      "status": true,
      "createdAt": "2023-08-23T12:34:56",
      "updatedAt": "2023-08-23T12:34:56"
    },
    {
      "id": 5,
      "name": "Betawi",
      "status": true,
      "createdAt": "2023-08-23T12:34:56",
      "updatedAt": "2023-08-23T12:34:56"
    },
    {
      "id": 6,
      "name": "Minang",
      "status": true,
      "createdAt": "2023-08-23T12:34:56",
      "updatedAt": "2023-08-23T12:34:56"
    },
    {
      "id": 7,
      "name": "Palembang",
      "status": true,
      "createdAt": "2023-08-23T12:34:56",
      "updatedAt": "2023-08-23T12:34:56"
    },
    {
      "id": 8,
      "name": "China",
      "status": true,
      "createdAt": "2023-08-23T12:34:56",
      "updatedAt": "2023-08-23T12:34:56"
    }
  ]
}
