{
  "from": 1,
  "to": 10,
  "total": 58,
  "per_page": 10,
  "current_page": 1,
  "last_page": 51,
  "first_page_url": "page=1&limit=10",
  "last_page_url": "page=1&limit=10",
  "next_page_url": "page=1&limit=10",
  "prev_page_url": "page=1&limit=10",
  "path": "http://192.168.3.221:8001/rheinmedika/medical-check/accounts",
  "data": [
    {
      "id": 1,
      "img": "/img/items/1660286499_62a18fe1f15ee840f565f5b1.jpeg",
      "name": "Provit-C 605 Mg 6 Kaplet",
      "sku": "SD201551011",
      "price": 21702,
      "stock": 7,
      "createdAt": "2023-08-23T12:34:56",
      "updatedAt": "2023-08-23T12:34:56"
    },
    {
      "id": 2,
      "img": "/img/items/1660367614_62a19088f15ee840f565fbe8.jpeg",
      "name": "Nat C 1000 30 Kapsul",
      "sku": "SI104501611",
      "price": 171554,
      "stock": 5,
      "createdAt": "2023-08-23T12:34:56",
      "updatedAt": "2023-08-23T12:34:56"
    },
    {
      "id": 3,
      "img": "/img/items/1660455510_5fb37e0b41ab59059e8688ea.jpeg",
      "name": "Xonce Jeruk 2 Tablet",
      "sku": "SD131543891",
      "price": 10416,
      "stock": 8,
      "createdAt": "2023-08-23T12:34:56",
      "updatedAt": "2023-08-23T12:34:56"
    },
    {
      "id": 4,
      "img": "/img/items/1659935216_61dff62de139ec05b9c8cadd.png",
      "name": "Blackmores Bio C 1000 Mg 30 Tablet",
      "sku": "SI164507151",
      "price": 155705,
      "stock": 3,
      "createdAt": "2023-08-23T12:34:56",
      "updatedAt": "2023-08-23T12:34:56"
    },
    {
      "id": 5,
      "img": "/img/items/1643872511_thumbnail-vicee_500_rasa_anggur_2_tablet_hisap.jpeg",
      "name": "Vicee 500 Anggur 2 Tablet",
      "sku": "SD161549181",
      "price": 3615,
      "stock": 10,
      "createdAt": "2023-08-23T12:34:56",
      "updatedAt": "2023-08-23T12:34:56"
    },
    {
      "id": 6,
      "img": "/img/items/1723113355_damuvit_c-1000_30_kapsul.png",
      "name": "Damuvit C-1000 30 Kapsul",
      "sku": "SD201552431",
      "price": 165000,
      "stock": 100,
      "createdAt": "2023-08-23T12:34:56",
      "updatedAt": "2023-08-23T12:34:56"
    },
    {
      "id": 7,
      "img": "/img/items/1660795519_62a19188f15ee840f5660476.png",
      "name": "Lavit C 10 Tablet",
      "sku": "SD201550271",
      "price": 34656,
      "stock": 14,
      "createdAt": "2023-08-23T12:34:56",
      "updatedAt": "2023-08-23T12:34:56"
    },
    {
      "id": 8,
      "img": "/img/items/1660796486_62a1917af15ee840f56603ff.jpeg",
      "name": "Max-C 500 mg 10 Tablet",
      "sku": "SD031508651",
      "price": 46435,
      "stock": 55,
      "createdAt": "2023-08-23T12:34:56",
      "updatedAt": "2023-08-23T12:34:56"
    },
    {
      "id": 9,
      "img": "/img/items/1691045645_nature_plus_vitamin_c_500_mg_90_tablet.jpeg",
      "name": "Nature Plus Vitamin C 500 Mg 90 Tablet",
      "sku": "SI044511341",
      "price": 319289,
      "stock": 67,
      "createdAt": "2023-08-23T12:34:56",
      "updatedAt": "2023-08-23T12:34:56"
    },
    {
      "id": 10,
      "img": "/img/items/1719910843_inavitamax_c_vita_kaplet.jpeg",
      "name": "Inavitamax C Vita 30 Kaplet",
      "sku": "SD202584071",
      "price": 198275,
      "stock": 87,
      "createdAt": "2023-08-23T12:34:56",
      "updatedAt": "2023-08-23T12:34:56"
    }
  ]
}
