{
  "from": 1,
  "to": 10,
  "total": 20,
  "per_page": 10,
  "current_page": 1,
  "last_page": 20,
  "first_page_url": "page=1&limit=10",
  "last_page_url": "page=20&limit=10",
  "next_page_url": "page=3&limit=10",
  "prev_page_url": "page=2&limit=10",
  "path": "http://192.168.3.221:8001/rheinmedika/medical-check/accounts",
  "data": [
    {
      "id": 1,
      "date": "2023-07-20T12:34:56",
      "doctor": {
        "id": 19,
        "img": "https://avatar.iran.liara.run/public/girl?usearname=dr.Niken+Anggraeni",
        "name": "dr. Niken Anggraeni",
        "sip": "440/0501/dr/00009/DPMPTSP/2019",
        "branch": "NMW Bintaro"
      },
      "diagnosis": ["Jerawat", "Pigmentasi", "Penuaan"]
    },
    {
      "id": 2,
      "date": "2023-08-23T12:34:56",
      "doctor": {
        "id": 19,
        "img": "https://avatar.iran.liara.run/public/girl?usearname=dr.Niken+Anggraeni",
        "name": "dr. Niken Anggraeni",
        "sip": "440/0501/dr/00009/DPMPTSP/2019",
        "branch": "NMW Bintaro"
      },
      "diagnosis": ["Penuaan"]
    }
  ]
}
