{
  "from": 1,
  "to": 10,
  "total": 3,
  "per_page": 10,
  "current_page": 1,
  "last_page": 1,
  "first_page_url": "page=1&limit=10",
  "last_page_url": "page=2&limit=10",
  "next_page_url": "page=2&limit=10",
  "prev_page_url": "page=1&limit=10",
  "path": "http://192.168.3.221:8001/rheinmedika/medical-check/accounts",
  "data": [
    {
      "id": 1,
      "code": "RB-PO24090001",
      "dateTime": "2023-08-23T12:34:56",
      "vendor": {
        "id": 1,
        "name": "Mahakam Beta Farma"
      },
      "summary": {
        "total": 5000,
        "ppn": 10,
        "grandTotal": 50000
      },
      "approval": {
        "value": true,
        "date": "2023-08-23T12:34:56"
      },
      "createdAt": "2023-08-23T12:34:56",
      "updatedAt": "2023-08-23T12:34:56"
    },
    {
      "id": 2,
      "code": "RB-PO24090002",
      "dateTime": "2023-08-23T12:34:56",
      "vendor": {
        "id": 1,
        "name": "PT Kalbe Blackmores Nutrition"
      },
      "summary": {
        "total": 5000,
        "ppn": 10,
        "grandTotal": 50000
      },
      "approval": {
        "value": true,
        "date": "2023-08-23T12:34:56"
      },
      "createdAt": "2023-08-23T12:34:56",
      "updatedAt": "2023-08-23T12:34:56"
    },
    {
      "id": 3,
      "code": "RB-PO24090003",
      "dateTime": "2023-08-23T12:34:56",
      "vendor": {
        "id": 1,
        "name": "PT Midix Graha Farma"
      },
      "summary": {
        "total": 5000,
        "ppn": 10,
        "grandTotal": 50000
      },
      "approval": {
        "value": false,
        "date": ""
      },
      "createdAt": "2023-08-23T12:34:56",
      "updatedAt": "2023-08-23T12:34:56"
    }
  ]
}
