{
  "from": 1,
  "to": 10,
  "total": 12,
  "per_page": 10,
  "current_page": 1,
  "last_page": 2,
  "first_page_url": "page=1&limit=10",
  "last_page_url": "page=1&limit=10",
  "next_page_url": "page=1&limit=10",
  "prev_page_url": "page=1&limit=10",
  "path": "http://192.168.3.221:8001/rheinmedika/medical-check/accounts",
  "data": [
    {
      "id": 1,
      "code": "CL-IP24040189",
      "name": "Nat C 1000 30 Kapsul",
      "price": 171554,
      "kuantiti": 1,
      "totalPrice": 171554,
      "createdAt": "2023-08-23T12:34:56",
      "updatedAt": "2023-08-23T12:34:56"
    },
    {
      "id": 2,
      "code": "CL-IP24040189",
      "name": "Provit-C 605 Mg 6 Kaplet",
      "price": 21702,
      "kuantiti": 2,
      "totalPrice": 43404,
      "createdAt": "2023-08-23T12:34:56",
      "updatedAt": "2023-08-23T12:34:56"
    },
    {
      "id": 3,
      "code": "CL-IP24040189",
      "name": "Xonce Jeruk 2 Tablet",
      "price": 10416,
      "kuantiti": 1,
      "totalPrice": 10416,
      "createdAt": "2023-08-23T12:34:56",
      "updatedAt": "2023-08-23T12:34:56"
    },
    {
      "id": 4,
      "code": "CL-IP24040189",
      "name": "Damuvit C-1000 30 Kapsul",
      "price": 165000,
      "kuantiti": 1,
      "totalPrice": 165000,
      "createdAt": "2023-08-23T12:34:56",
      "updatedAt": "2023-08-23T12:34:56"
    },
    {
      "id": 5,
      "code": "CL-IP24040189",
      "name": "Lavit C 10 Tablet",
      "price": 34656,
      "kuantiti": 1,
      "totalPrice": 34656,
      "createdAt": "2023-08-23T12:34:56",
      "updatedAt": "2023-08-23T12:34:56"
    },
    {
      "id": 6,
      "code": "BA-IP24040277",
      "name": "Damuvit C-1000 30 Kapsul",
      "price": 165000,
      "kuantiti": 1,
      "totalPrice": 165000,
      "createdAt": "2023-08-23T12:34:56",
      "updatedAt": "2023-08-23T12:34:56"
    },
    {
      "id": 7,
      "code": "BA-IP24040277",
      "name": "Inavitamax C Vita 30 Kaplet",
      "price": 198275,
      "kuantiti": 1,
      "totalPrice": 198275,
      "createdAt": "2023-08-23T12:34:56",
      "updatedAt": "2023-08-23T12:34:56"
    },
    {
      "id": 8,
      "code": "BA-IP24040294",
      "name": "Provit-C 605 Mg 6 Kaplet",
      "price": 21702,
      "kuantiti": 1,
      "totalPrice": 21702,
      "createdAt": "2023-08-23T12:34:56",
      "updatedAt": "2023-08-23T12:34:56"
    },
    {
      "id": 9,
      "code": "BA-IP24040294",
      "name": "Damuvit C-1000 30 Kapsul",
      "price": 165000,
      "kuantiti": 1,
      "totalPrice": 165000,
      "createdAt": "2023-08-23T12:34:56",
      "updatedAt": "2023-08-23T12:34:56"
    },
    {
      "id": 10,
      "code": "BA-IP24040294",
      "name": "Lavit C 10 Tablet",
      "price": 34656,
      "kuantiti": 1,
      "totalPrice": 34656,
      "createdAt": "2023-08-23T12:34:56",
      "updatedAt": "2023-08-23T12:34:56"
    }
  ]
}
