{
  "from": 1,
  "to": 10,
  "total": 17,
  "per_page": 10,
  "current_page": 1,
  "last_page": 2,
  "first_page_url": "page=1&limit=10",
  "last_page_url": "page=20&limit=10",
  "next_page_url": "page=3&limit=10",
  "prev_page_url": "page=2&limit=10",
  "path": "http://192.168.3.221:8001/rheinmedika/medical-check/accounts",
  "data": [
    {
      "id": 1,
      "name": "Administrator",
      "createAt": "2023-08-23T12:34:56",
      "updateAt": "2023-08-23T12:34:56"
    },
    {
      "id": 2,
      "name": "Frontline",
      "createAt": "2023-08-23T12:34:56",
      "updateAt": "2023-08-23T12:34:56"
    },
    {
      "id": 3,
      "name": "Nurse",
      "createAt": "2023-08-23T12:34:56",
      "updateAt": "2023-08-23T12:34:56"
    },
    {
      "id": 4,
      "name": "Apoteker",
      "createAt": "2023-08-23T12:34:56",
      "updateAt": "2023-08-23T12:34:56"
    },
    {
      "id": 5,
      "name": "Doctor",
      "createAt": "2023-08-23T12:34:56",
      "updateAt": "2023-08-23T12:34:56"
    },
    {
      "id": 6,
      "name": "Casheer",
      "createAt": "2023-08-23T12:34:56",
      "updateAt": "2023-08-23T12:34:56"
    },
    {
      "id": 7,
      "name": "Report",
      "createAt": "2023-08-23T12:34:56",
      "updateAt": "2023-08-23T12:34:56"
    },
    {
      "id": 8,
      "name": "Accounting",
      "createAt": "2023-08-23T12:34:56",
      "updateAt": "2023-08-23T12:34:56"
    },
    {
      "id": 9,
      "name": "Marketing",
      "createAt": "2023-08-23T12:34:56",
      "updateAt": "2023-08-23T12:34:56"
    },
    {
      "id": 10,
      "name": "Warehouse",
      "createAt": "2023-08-23T12:34:56",
      "updateAt": "2023-08-23T12:34:56"
    }
  ]
}
