{
  "from": 1,
  "to": 10,
  "total": 7266,
  "per_page": 10,
  "current_page": 1,
  "last_page": 128,
  "first_page_url": "page=1&limit=10",
  "last_page_url": "page=1&limit=10",
  "next_page_url": "page=1&limit=10",
  "prev_page_url": "page=1&limit=10",
  "path": "http://192.168.3.221:8001/rheinmedika/medical-check/accounts",
  "data": [
    {
      "id": 1,
      "code": "11.01.01",
      "name": "Bakongan",
      "createdAt": "2023-08-23T12:34:56",
      "updatedAt": "2023-08-23T12:34:56"
    },
    {
      "id": 2,
      "code": "11.01.02",
      "name": "Kluet Utara",
      "createdAt": "2023-08-23T12:34:56",
      "updatedAt": "2023-08-23T12:34:56"
    },
    {
      "id": 3,
      "code": "11.01.03",
      "name": "Kluet Selatan",
      "createdAt": "2023-08-23T12:34:56",
      "updatedAt": "2023-08-23T12:34:56"
    },
    {
      "id": 4,
      "code": "11.01.04",
      "name": "Labuhan Haji",
      "createdAt": "2023-08-23T12:34:56",
      "updatedAt": "2023-08-23T12:34:56"
    },
    {
      "id": 5,
      "code": "11.01.05",
      "name": "Meukek",
      "createdAt": "2023-08-23T12:34:56",
      "updatedAt": "2023-08-23T12:34:56"
    },
    {
      "id": 6,
      "code": "11.01.06",
      "name": "Samadua",
      "createdAt": "2023-08-23T12:34:56",
      "updatedAt": "2023-08-23T12:34:56"
    },
    {
      "id": 7,
      "code": "11.01.07",
      "name": "Sawang",
      "createdAt": "2023-08-23T12:34:56",
      "updatedAt": "2023-08-23T12:34:56"
    },
    {
      "id": 8,
      "code": "11.01.08",
      "name": "Tapaktuan",
      "createdAt": "2023-08-23T12:34:56",
      "updatedAt": "2023-08-23T12:34:56"
    },
    {
      "id": 9,
      "code": "11.01.09",
      "name": "Trumon",
      "createdAt": "2023-08-23T12:34:56",
      "updatedAt": "2023-08-23T12:34:56"
    },
    {
      "id": 10,
      "code": "11.01.10",
      "name": "Pasi Raja",
      "createdAt": "2023-08-23T12:34:56",
      "updatedAt": "2023-08-23T12:34:56"
    }
  ]
}
