{
  "from": 1,
  "to": 10,
  "total": 58,
  "per_page": 10,
  "current_page": 1,
  "last_page": 6,
  "first_page_url": "page=1&limit=10",
  "last_page_url": "page=6&limit=10",
  "next_page_url": "page=2&limit=10",
  "prev_page_url": "page=1&limit=10",
  "path": "http://192.168.3.221:8001/rheinmedika/medical-check/accounts",
  "data": [
    {
      "id": 1,
      "img": "/img/treatments/essential-facial.png",
      "name": "Essential Facial",
      "category": "Spa",
      "price": 200000,
      "createdAt": "2023-08-23T12:34:56",
      "updatedAt": "2023-08-23T12:34:56"
    },
    {
      "id": 2,
      "img": "/img/treatments/essential-facial-spa.png",
      "name": "Essential Facial Spa",
      "category": "Spa",
      "price": 175000,
      "createdAt": "2023-08-23T12:34:56",
      "updatedAt": "2023-08-23T12:34:56"
    },
    {
      "id": 3,
      "img": "/img/treatments/derma-face-therapy.png",
      "name": "Derma Face Therapy (DFT)",
      "category": "Spa",
      "price": 700000,
      "createdAt": "2023-08-23T12:34:56",
      "updatedAt": "2023-08-23T12:34:56"
    },
    {
      "id": 4,
      "img": "/img/treatments/botulinum-toxin-injection.png",
      "name": "Botulinum Toxin Injection",
      "category": "Aesthetic",
      "price": 95000,
      "createdAt": "2023-08-23T12:34:56",
      "updatedAt": "2023-08-23T12:34:56"
    },
    {
      "id": 5,
      "img": "/img/treatments/filler.png",
      "name": "Filler",
      "category": "Aesthetic",
      "price": 3000000,
      "createdAt": "2023-08-23T12:34:56",
      "updatedAt": "2023-08-23T12:34:56"
    },
    {
      "id": 6,
      "img": "/img/treatments/platelet-rich-plasma.png",
      "name": "Platelet Rich Plasma (PRP)",
      "category": "Medical",
      "price": 4915486,
      "createdAt": "2023-08-23T12:34:56",
      "updatedAt": "2023-08-23T12:34:56"
    },
    {
      "id": 7,
      "img": "/img/treatments/meso-treatment.png",
      "name": "Meso Treatment",
      "category": "Medical",
      "price": 4080000,
      "createdAt": "2023-08-23T12:34:56",
      "updatedAt": "2023-08-23T12:34:56"
    },
    {
      "id": 8,
      "img": "/img/treatments/messo-lipolysis-injection.png",
      "name": "Messo Lipolysis Injection",
      "category": "Slimming",
      "price": 500000,
      "createdAt": "2023-08-23T12:34:56",
      "updatedAt": "2023-08-23T12:34:56"
    },
    {
      "id": 9,
      "img": "/img/treatments/big-area-slimming.webp",
      "name": "Big Area Slimming",
      "category": "Slimming",
      "price": 200000,
      "createdAt": "2023-08-23T12:34:56",
      "updatedAt": "2023-08-23T12:34:56"
    },
    {
      "id": 10,
      "img": "/img/treatments/hollywood-peel.png",
      "name": "Hollywood Peel",
      "category": "Cosmetic Dermatology",
      "price": 3000000,
      "createdAt": "2023-08-23T12:34:56",
      "updatedAt": "2023-08-23T12:34:56"
    }
  ]
}
